{
  "swagger": "2.0",
  "info": {
    "version": "1.0.2",
    "title": "Organization API",
    "description": "Organization Rest API"
  },
  "basePath": "/api",
  "schemes": [
    "http",
    "https"
  ],
  "consumes": [
    "application/json"
  ],
  "produces": [
    "application/json"
  ],
  "tags": [
    {
      "name": "organization",
      "description": "Organization resource"
    },
    {
      "name": "user",
      "description": "User resource"
    },
    {
      "name": "provider",
      "description": "Provider resource"
    }
  ],
  "paths": {
    "/organization": {
      "x-swagger-router-controller": "organization",
      "post": {
        "tags": [
          "organization"
        ],
        "description": "Add new Organization",
        "operationId": "add",
        "parameters": [
          {
            "name": "body",
            "in": "body",
            "description": "Organization object",
            "required": true,
            "schema": {
              "$ref": "#/definitions/Organization"
            }
          }
        ],
        "responses": {
          "200": {
            "description": "Success"
          },
          "default": {
            "description": "Error",
            "schema": {
              "$ref": "#/definitions/ErrorResponse"
            }
          }
        }
      },
      "get": {
        "tags": [
          "organization"
        ],
        "description": "Get Organization list",
        "operationId": "list",
        "responses": {
          "200": {
            "description": "Success",
            "schema": {
              "type": "array",
              "items": {
                "$ref": "#/definitions/Organization"
              }
            }
          },
          "default": {
            "description": "Error",
            "schema": {
              "$ref": "#/definitions/ErrorResponse"
            }
          }
        }
      }
    },
    "/organization/{id}": {
      "x-swagger-router-controller": "organization",
      "get": {
        "tags": [
          "organization"
        ],
        "description": "Get Organization by id",
        "operationId": "get",
        "parameters": [
          {
            "name": "id",
            "in": "path",
            "required": true,
            "type": "string"
          }
        ],
        "responses": {
          "200": {
            "description": "Success",
            "schema": {
              "$ref": "#/definitions/Organization"
            }
          },
          "default": {
            "description": "Error",
            "schema": {
              "$ref": "#/definitions/ErrorResponse"
            }
          }
        }
      },
      "put": {
        "tags": [
          "organization"
        ],
        "description": "Updates an Organization",
        "operationId": "update",
        "parameters": [
          {
            "name": "id",
            "in": "path",
            "required": true,
            "type": "string"
          },
          {
            "name": "body",
            "in": "body",
            "description": "The trade",
            "required": true,
            "schema": {
              "$ref": "#/definitions/Organization"
            }
          }
        ],
        "responses": {
          "200": {
            "description": "Success"
          },
          "default": {
            "description": "Error",
            "schema": {
              "$ref": "#/definitions/ErrorResponse"
            }
          }
        }
      },
      "delete": {
        "tags": [
          "organization"
        ],
        "description": "Deletes an Organization",
        "operationId": "remove",
        "parameters": [
          {
            "name": "id",
            "in": "path",
            "required": true,
            "type": "string"
          }
        ],
        "responses": {
          "200": {
            "description": "Success"
          },
          "default": {
            "description": "Error",
            "schema": {
              "$ref": "#/definitions/ErrorResponse"
            }
          }
        }
      }
    },
    "/organization/{id}/user/{userId}": {
      "x-swagger-router-controller": "organization",
      "post": {
        "tags": [
          "organization"
        ],
        "description": "Add User to Organization",
        "operationId": "addOrganizationUser",
        "parameters": [
          {
            "name": "id",
            "in": "path",
            "required": true,
            "type": "string"
          },
          {
            "name": "userId",
            "in": "path",
            "required": true,
            "type": "string"
          },
          {
            "name": "body",
            "in": "body",
            "description": "Organization object",
            "required": true,
            "schema": {
              "$ref": "#/definitions/Organization"
            }
          }
        ],
        "responses": {
          "200": {
            "description": "Success"
          },
          "default": {
            "description": "Error",
            "schema": {
              "$ref": "#/definitions/ErrorResponse"
            }
          }
        }
      },
      "delete": {
        "tags": [
          "organization"
        ],
        "description": "Remove User from Organization",
        "operationId": "removeOrganizationUser",
        "parameters": [
          {
            "name": "id",
            "in": "path",
            "required": true,
            "type": "string"
          },
          {
            "name": "userId",
            "in": "path",
            "required": true,
            "type": "string"
          },
          {
            "name": "body",
            "in": "body",
            "description": "Organization object",
            "required": true,
            "schema": {
              "$ref": "#/definitions/Organization"
            }
          }
        ],
        "responses": {
          "200": {
            "description": "Success"
          },
          "default": {
            "description": "Error",
            "schema": {
              "$ref": "#/definitions/ErrorResponse"
            }
          }
        }
      }
    },
    "/organization/{id}/provider/{providerId}": {
      "x-swagger-router-controller": "organization",
      "post": {
        "tags": [
          "organization"
        ],
        "description": "Add Provider to Organization",
        "operationId": "addOrganizationProvider",
        "parameters": [
          {
            "name": "id",
            "in": "path",
            "required": true,
            "type": "string"
          },
          {
            "name": "providerId",
            "in": "path",
            "required": true,
            "type": "string"
          },
          {
            "name": "body",
            "in": "body",
            "description": "Provider object",
            "required": true,
            "schema": {
              "$ref": "#/definitions/Provider"
            }
          }
        ],
        "responses": {
          "200": {
            "description": "Success"
          },
          "default": {
            "description": "Error",
            "schema": {
              "$ref": "#/definitions/ErrorResponse"
            }
          }
        }
      },
      "delete": {
        "tags": [
          "organization"
        ],
        "description": "Remove Provider from Organization",
        "operationId": "removeOrganizationProvider",
        "parameters": [
          {
            "name": "id",
            "in": "path",
            "required": true,
            "type": "string"
          },
          {
            "name": "providerId",
            "in": "path",
            "required": true,
            "type": "string"
          },
          {
            "name": "body",
            "in": "body",
            "description": "Provider object",
            "required": true,
            "schema": {
              "$ref": "#/definitions/Provider"
            }
          }
        ],
        "responses": {
          "200": {
            "description": "Success"
          },
          "default": {
            "description": "Error",
            "schema": {
              "$ref": "#/definitions/ErrorResponse"
            }
          }
        }
      }
    },
    "/user": {
      "x-swagger-router-controller": "user",
      "post": {
        "tags": [
          "user"
        ],
        "description": "Add new User",
        "operationId": "addUser",
        "parameters": [
          {
            "name": "body",
            "in": "body",
            "description": "User object",
            "required": true,
            "schema": {
              "$ref": "#/definitions/User"
            }
          }
        ],
        "responses": {
          "200": {
            "description": "Success"
          },
          "default": {
            "description": "Error",
            "schema": {
              "$ref": "#/definitions/ErrorResponse"
            }
          }
        }
      },
      "get": {
        "tags": [
          "user"
        ],
        "description": "Get User list",
        "operationId": "listUsers",
        "responses": {
          "200": {
            "description": "Success",
            "schema": {
              "type": "array",
              "items": {
                "$ref": "#/definitions/User"
              }
            }
          },
          "default": {
            "description": "Error",
            "schema": {
              "$ref": "#/definitions/ErrorResponse"
            }
          }
        }
      }
    },
    "/user/{id}": {
      "x-swagger-router-controller": "user",
      "get": {
        "tags": [
          "user"
        ],
        "description": "Get User by id",
        "operationId": "getUser",
        "parameters": [
          {
            "name": "id",
            "in": "path",
            "required": true,
            "type": "string"
          }
        ],
        "responses": {
          "200": {
            "description": "Success",
            "schema": {
              "$ref": "#/definitions/User"
            }
          },
          "default": {
            "description": "Error",
            "schema": {
              "$ref": "#/definitions/ErrorResponse"
            }
          }
        }
      },
      "put": {
        "tags": [
          "user"
        ],
        "description": "Updates a User",
        "operationId": "updateUser",
        "parameters": [
          {
            "name": "id",
            "in": "path",
            "required": true,
            "type": "string"
          },
          {
            "name": "body",
            "in": "body",
            "description": "The trade",
            "required": true,
            "schema": {
              "$ref": "#/definitions/User"
            }
          }
        ],
        "responses": {
          "200": {
            "description": "Success"
          },
          "default": {
            "description": "Error",
            "schema": {
              "$ref": "#/definitions/ErrorResponse"
            }
          }
        }
      },
      "delete": {
        "tags": [
          "user"
        ],
        "description": "Deletes a User",
        "operationId": "removeUser",
        "parameters": [
          {
            "name": "id",
            "in": "path",
            "required": true,
            "type": "string"
          }
        ],
        "responses": {
          "200": {
            "description": "Success"
          },
          "default": {
            "description": "Error",
            "schema": {
              "$ref": "#/definitions/ErrorResponse"
            }
          }
        }
      }
    },
    "/provider": {
      "x-swagger-router-controller": "provider",
      "post": {
        "tags": [
          "provider"
        ],
        "description": "Add new Provider",
        "operationId": "addProvider",
        "parameters": [
          {
            "name": "body",
            "in": "body",
            "description": "Provider object",
            "required": true,
            "schema": {
              "$ref": "#/definitions/Provider"
            }
          }
        ],
        "responses": {
          "200": {
            "description": "Success"
          },
          "default": {
            "description": "Error",
            "schema": {
              "$ref": "#/definitions/ErrorResponse"
            }
          }
        }
      },
      "get": {
        "tags": [
          "provider"
        ],
        "description": "Get Provider list",
        "operationId": "listProviders",
        "responses": {
          "200": {
            "description": "Success",
            "schema": {
              "type": "array",
              "items": {
                "$ref": "#/definitions/Provider"
              }
            }
          },
          "default": {
            "description": "Error",
            "schema": {
              "$ref": "#/definitions/ErrorResponse"
            }
          }
        }
      }
    },
    "/provider/{id}": {
      "x-swagger-router-controller": "provider",
      "get": {
        "tags": [
          "provider"
        ],
        "description": "Get Provider by id",
        "operationId": "getProvider",
        "parameters": [
          {
            "name": "id",
            "in": "path",
            "required": true,
            "type": "string"
          }
        ],
        "responses": {
          "200": {
            "description": "Success",
            "schema": {
              "$ref": "#/definitions/Provider"
            }
          },
          "default": {
            "description": "Error",
            "schema": {
              "$ref": "#/definitions/ErrorResponse"
            }
          }
        }
      },
      "put": {
        "tags": [
          "provider"
        ],
        "description": "Updates a Provider",
        "operationId": "updateProvider",
        "parameters": [
          {
            "name": "id",
            "in": "path",
            "required": true,
            "type": "string"
          },
          {
            "name": "body",
            "in": "body",
            "description": "The trade",
            "required": true,
            "schema": {
              "$ref": "#/definitions/Provider"
            }
          }
        ],
        "responses": {
          "200": {
            "description": "Success"
          },
          "default": {
            "description": "Error",
            "schema": {
              "$ref": "#/definitions/ErrorResponse"
            }
          }
        }
      },
      "delete": {
        "tags": [
          "provider"
        ],
        "description": "Deletes a Provider",
        "operationId": "removeProvider",
        "parameters": [
          {
            "name": "id",
            "in": "path",
            "required": true,
            "type": "string"
          }
        ],
        "responses": {
          "200": {
            "description": "Success"
          },
          "default": {
            "description": "Error",
            "schema": {
              "$ref": "#/definitions/ErrorResponse"
            }
          }
        }
      }
    }
  },
  "definitions": {
    "ErrorResponse": {
      "required": [
        "message"
      ],
      "properties": {
        "message": {
          "type": "string"
        }
      }
    },
    "Organization": {
      "type": "object",
      "properties": {
        "_id": {
          "type": "string",
          "description": "Database Id."
        },
        "name": {
          "type": "string",
          "description": "Organization name"
        },
        "address": {
          "type": "string",
          "description": "Organization address"
        },
        "providers": {
          "description": "Organization providers",
          "type": "array",
          "items": {
            "$ref": "#/definitions/Provider"
          }
        },
        "users": {
          "description": "Organization users",
          "type": "array",
          "items": {
            "$ref": "#/definitions/User"
          }
        }
      }
    },
    "User": {
      "type": "object",
      "properties": {
        "_id": {
          "type": "string",
          "description": "Database Id."
        },
        "first_name": {
          "type": "string",
          "description": "First name"
        },
        "last_name": {
          "type": "string",
          "description": "Last name"
        },
        "email": {
          "type": "string",
          "description": "Last name"
        },
        "birth_day": {
          "type": "string",
          "description": "Age"
        },
        "identity_type": {
          "type": "string",
          "description": "Identity card type"
        },
        "identity_number": {
          "type": "string",
          "description": "Identity card number"
        },
        "role": {
          "type": "string",
          "description": "Application role, it can be 'volunteer', 'admin' or 'backoffice'"
        },
        "descrption": {
          "type": "string",
          "description": "Additional information"
        }
      }
    },
    "Provider": {
      "type": "object",
      "properties": {
        "_id": {
          "type": "string",
          "description": "Database Id."
        },
        "name": {
          "type": "string",
          "description": "Provider name. It can be 'google'."
        },
        "type": {
          "type": "string",
          "description": "Provider login type. It can be 'web', 'android' or 'ios'."
        },
        "provider_id": {
          "type": "string",
          "description": "Provider Id."
        }
      }
    }
  }
}